\relax 
\providecommand\hyper@newdestlabel[2]{}
\providecommand\HyperFirstAtBeginDocument{\AtBeginDocument}
\HyperFirstAtBeginDocument{\ifx\hyper@anchor\@undefined
\global\let\oldcontentsline\contentsline
\gdef\contentsline#1#2#3#4{\oldcontentsline{#1}{#2}{#3}}
\global\let\oldnewlabel\newlabel
\gdef\newlabel#1#2{\newlabelxx{#1}#2}
\gdef\newlabelxx#1#2#3#4#5#6{\oldnewlabel{#1}{{#2}{#3}}}
\AtEndDocument{\ifx\hyper@anchor\@undefined
\let\contentsline\oldcontentsline
\let\newlabel\oldnewlabel
\fi}
\fi}
\global\let\hyper@last\relax 
\gdef\HyperFirstAtBeginDocument#1{#1}
\providecommand\HyField@AuxAddToFields[1]{}
\providecommand\HyField@AuxAddToCoFields[2]{}
\newlabel{FirstPage}{{}{1}{}{Doc-Start}{}}
\@writefile{toc}{\contentsline {title}{2D Fermi gas coupled to a harmonic oscillator degree of freedom}{1}{section*.1}}
\@writefile{toc}{\contentsline {section}{\numberline {I}Basic overview of the situation}{1}{section*.2}}
\@writefile{toc}{\contentsline {section}{\numberline {II}Deriving the functional}{1}{section*.3}}
\newlabel{fermienergy}{{11}{2}{}{equation.2.11}{}}
\newlabel{kinetic}{{12}{3}{}{equation.2.12}{}}
\newlabel{kineticq}{{13}{3}{}{equation.2.13}{}}
\newlabel{kina}{{14}{3}{}{equation.2.14}{}}
\@writefile{toc}{\contentsline {section}{\numberline {III}3D correspondence}{3}{section*.4}}
\newlabel{nz}{{20}{4}{}{equation.3.20}{}}
\newlabel{n2dmap}{{23}{4}{}{equation.3.23}{}}
\newlabel{fullk}{{30}{4}{}{equation.3.30}{}}
\bibdata{beyond2dNotes}
\bibstyle{apsrev4-1}
\citation{REVTEX41Control}
\citation{apsrev41Control}
\newlabel{kina2}{{31}{5}{}{equation.3.31}{}}
\@writefile{toc}{\contentsline {section}{\numberline {IV}Testing the functional}{5}{section*.5}}
\@writefile{lof}{\contentsline {figure}{\numberline {1}{\ignorespaces The comparison of the density profiles for two- and three-dimensional functionals in case of symmetric trap and different numbers of particles. Very good agreement is seen already for no less than 10-20 atoms. For very large numbers of atoms density profiles are the same up to couple of significant digits. \relax }}{6}{figure.caption.6}}
\providecommand*\caption@xref[2]{\@setref\relax\@undefined{#1}}
\newlabel{densnum}{{1}{6}{The comparison of the density profiles for two- and three-dimensional functionals in case of symmetric trap and different numbers of particles. Very good agreement is seen already for no less than 10-20 atoms. For very large numbers of atoms density profiles are the same up to couple of significant digits. \relax }{figure.caption.6}{}}
\@writefile{lof}{\contentsline {figure}{\numberline {2}{\ignorespaces The comparison of the density profiles for two- and three-dimensional functionals in case of equal number of particles $N=5000$ and different trap ratios. Quite good agreement is seen already in deep two-dimensional regime, with maximal $l$ equal 3 or so. Deep in three-dimensional regime density profiles are the same up to couple of significant digits. \relax }}{6}{figure.caption.7}}
\newlabel{densfreq}{{2}{6}{The comparison of the density profiles for two- and three-dimensional functionals in case of equal number of particles $N=5000$ and different trap ratios. Quite good agreement is seen already in deep two-dimensional regime, with maximal $l$ equal 3 or so. Deep in three-dimensional regime density profiles are the same up to couple of significant digits. \relax }{figure.caption.7}{}}
\@writefile{lof}{\contentsline {figure}{\numberline {3}{\ignorespaces The comparison of the full kinetic energies for two- and three-dimensional functionals in case of equal number of particles $N=10000$ and different trap ratios. Good agreement is seen even in the two-dimensional regime (up to 5$\%$) \relax }}{7}{figure.caption.8}}
\newlabel{kins1}{{3}{7}{The comparison of the full kinetic energies for two- and three-dimensional functionals in case of equal number of particles $N=10000$ and different trap ratios. Good agreement is seen even in the two-dimensional regime (up to 5$\%$) \relax }{figure.caption.8}{}}
\@writefile{lof}{\contentsline {figure}{\numberline {4}{\ignorespaces The comparison of the full kinetic energies for two- and three-dimensional functionals in case of symmetric trap and different numbers of particles. Good agreement is seen even for small numbers of atoms (up to 5$\%$) \relax }}{7}{figure.caption.9}}
\newlabel{kins2}{{4}{7}{The comparison of the full kinetic energies for two- and three-dimensional functionals in case of symmetric trap and different numbers of particles. Good agreement is seen even for small numbers of atoms (up to 5$\%$) \relax }{figure.caption.9}{}}
\newlabel{LastPage}{{}{7}{}{}{}}
